<?xml version="1.0" encoding="UTF-8" standalone="no"?>
<svg width="26px" height="31px" viewBox="0 0 26 31" version="1.1" xmlns="http://www.w3.org/2000/svg" xmlns:xlink="http://www.w3.org/1999/xlink">
    <!-- Generator: sketchtool 46.2 (44496) - http://www.bohemiancoding.com/sketch -->
    <title>861FD1A5-6685-4E36-BBD4-304B70BDEEA7</title>
    <desc>Created with sketchtool.</desc>
    <defs></defs>
    <g id="Page-1" stroke="none" stroke-width="1" fill="none" fill-rule="evenodd">
        <g id="23@Search-02-result-common" transform="translate(-369.000000, -31.000000)" stroke="#F9A31A">
            <g id="Page-1" transform="translate(370.000000, 32.000000)">
                <g id="Group-3">
                    <path d="M10.9338845,0.965853659 C8.24507741,0.965853659 5.71727458,2.00782187 3.81605971,3.89976252 C1.91472296,5.79182446 0.867647059,8.30729655 0.867647059,10.9828662 C0.867647059,13.6585571 1.91472296,16.1741505 3.81605971,18.0659699 C5.71727458,19.9580318 8.24507741,21 10.9338845,21 C13.6225696,21 16.1503725,19.9580318 18.0517092,18.0659699 C19.9529241,16.1741505 21,13.6585571 21,10.9828662 C21,8.30729655 19.9529241,5.79182446 18.0517092,3.89976252 C16.1503725,2.00782187 13.6225696,0.965853659 10.9338845,0.965853659 M10.9338845,1.81910082 C16.0197165,1.81910082 20.1425703,5.92184308 20.1425703,10.9828662 C20.1425703,16.0438893 16.0197165,20.1467528 10.9338845,20.1467528 C5.84805242,20.1467528 1.72519869,16.0438893 1.72519869,10.9828662 C1.72519869,5.92184308 5.84805242,1.81910082 10.9338845,1.81910082" id="Fill-1" stroke-width="2" fill="#F9A31A"></path>
                    <path d="M16.5,19.5 L22.5,27.5" id="Line-4" stroke-width="3" stroke-linecap="square"></path>
                </g>
            </g>
        </g>
    </g>
</svg>