<?xml version="1.0" encoding="UTF-8" standalone="no"?>
<svg width="40px" height="40px" viewBox="0 0 40 40" version="1.1" xmlns="http://www.w3.org/2000/svg" xmlns:xlink="http://www.w3.org/1999/xlink">
    <!-- Generator: sketchtool 46.2 (44496) - http://www.bohemiancoding.com/sketch -->
    <title>838A2BDF-1EA3-46D4-8CBA-23D7140C993F</title>
    <desc>Created with sketchtool.</desc>
    <defs></defs>
    <g id="Page-1" stroke="none" stroke-width="1" fill="none" fill-rule="evenodd">
        <g id="01@Main-full" transform="translate(-191.000000, -3573.000000)">
            <g id="Social-Icons" transform="translate(41.000000, 3573.000000)">
                <g id="Group-2" transform="translate(150.000000, 0.000000)">
                    <circle id="Oval-31" fill="#FFFFFF" cx="20" cy="20" r="20"></circle>
                    <path d="M26.0981371,12 L13.9018629,12 C12.8514306,12 12,12.8492486 12,13.8974988 L12,26.1025012 C12,27.150315 12.8514306,28 13.9018629,28 L26.0981371,28 C27.1485694,28 28,27.150315 28,26.1025012 L28,13.8974988 C28,12.8492486 27.1485694,12 26.0981371,12 L26.0981371,12 Z M23.5002046,14.4997409 C23.5002046,14.2239315 23.7240815,13.9996181 23.9998909,13.9996181 L25.4998227,13.9996181 C25.7760685,13.9996181 25.9999454,14.2239315 25.9999454,14.4997409 L25.9999454,15.9996727 C25.9999454,16.2759185 25.7760685,16.4997954 25.4998227,16.4997954 L23.9998909,16.4997954 C23.7240815,16.4997954 23.5002046,16.2759185 23.5002046,15.9996727 L23.5002046,14.4997409 L23.5002046,14.4997409 Z M20.0185473,16.9488585 C21.7179172,16.9488585 23.095655,18.3235414 23.095655,20.0181109 C23.095655,21.7139896 21.7179172,23.0882361 20.0185473,23.0882361 C18.3196138,23.0882361 16.941876,21.7139896 16.941876,20.0181109 C16.941876,18.3235414 18.3196138,16.9488585 20.0185473,16.9488585 L20.0185473,16.9488585 Z M26.5000682,25.9999454 C26.5000682,26.2757548 26.2761913,26.5000682 25.9999454,26.5000682 L14.0000546,26.5000682 C13.7238087,26.5000682 13.4999318,26.2757548 13.4999318,25.9999454 L13.4999318,18.49985 L15.4999864,18.49985 C15.2394512,18.8747238 15.1512969,19.5742847 15.1512969,20.0181109 C15.1512969,22.695906 17.335079,24.8744511 20.0185473,24.8744511 C22.7024521,24.8744511 24.8862341,22.695906 24.8862341,20.0181109 C24.8862341,19.5742847 24.822955,18.8851976 24.5000136,18.49985 L26.5000682,18.49985 L26.5000682,25.9999454 L26.5000682,25.9999454 Z" id="Instagram" fill="#313237"></path>
                </g>
            </g>
        </g>
    </g>
</svg>