<?xml version="1.0" encoding="UTF-8" standalone="no"?>
<svg width="15px" height="18px" viewBox="0 0 15 18" version="1.1" xmlns="http://www.w3.org/2000/svg" xmlns:xlink="http://www.w3.org/1999/xlink">
    <!-- Generator: sketchtool 46.2 (44496) - http://www.bohemiancoding.com/sketch -->
    <title>82F8D4E6-0176-45D8-869A-36B6100775EC</title>
    <desc>Created with sketchtool.</desc>
    <defs></defs>
    <g id="Page-1" stroke="none" stroke-width="1" fill="none" fill-rule="evenodd">
        <g id="40@Preferences-06" transform="translate(-718.000000, -546.000000)" fill="#626264">
            <g id="garbage-(3)" transform="translate(718.000000, 546.000000)">
                <path d="M14.493415,2.61851662 L10.9936599,2.61851662 L10.9936599,2.01089003 C10.9936599,0.924352941 10.163732,0.040511509 9.14351585,0.040511509 L5.81667147,0.040511509 C4.79658501,0.040511509 3.96665706,0.924352941 3.96665706,2.01089003 L3.96665706,2.61851662 L0.466902017,2.61851662 C0.207536023,2.61851662 0,2.83953453 0,3.11574936 C0,3.39196419 0.207536023,3.6129821 0.466902017,3.6129821 L1.31066282,3.6129821 L1.31066282,15.29489 C1.31066282,16.7606701 2.43103746,17.9540102 3.80740634,17.9540102 L11.1527378,17.9540102 C12.5291066,17.9540102 13.6496542,16.7606701 13.6496542,15.29489 L13.6496542,3.6129821 L14.493415,3.6129821 C14.752781,3.6129821 14.9601441,3.39196419 14.9601441,3.11574936 C14.9601441,2.83953453 14.752781,2.61851662 14.493415,2.61851662 Z M4.90024496,2.01089003 C4.90024496,1.47319182 5.31177233,1.03497698 5.81667147,1.03497698 L9.14351585,1.03497698 C9.64837176,1.03497698 10.0598991,1.47319182 10.0598991,2.01089003 L10.0598991,2.61851662 L4.90024496,2.61851662 L4.90024496,2.01089003 Z M12.7158501,15.29489 C12.7158501,16.2120153 12.0139193,16.9595908 11.1527378,16.9595908 L3.80740634,16.9595908 C2.94639769,16.9595908 2.24446686,16.2120153 2.24446686,15.29489 L2.24446686,3.6129821 L12.7192219,3.6129821 L12.7192219,15.29489 L12.7158501,15.29489 Z" id="Fill-1"></path>
                <path d="M7.48007205,15.1771304 C7.73943804,15.1771304 7.94697406,14.9561125 7.94697406,14.6798977 L7.94697406,5.89262916 C7.94697406,5.61641432 7.73943804,5.39539642 7.48007205,5.39539642 C7.22070605,5.39539642 7.01317003,5.61641432 7.01317003,5.89262916 L7.01317003,14.6763069 C7.01317003,14.9525217 7.22070605,15.1771304 7.48007205,15.1771304 Z" id="Fill-2"></path>
                <path d="M4.43338617,14.6282916 C4.69275216,14.6282916 4.90024496,14.4072737 4.90024496,14.1310588 L4.90024496,6.43769309 C4.90024496,6.16147826 4.69275216,5.94046036 4.43338617,5.94046036 C4.17402017,5.94046036 3.96665706,6.16147826 3.96665706,6.43769309 L3.96665706,14.1310588 C3.96665706,14.4072737 4.17756484,14.6282916 4.43338617,14.6282916 Z" id="Fill-3"></path>
                <path d="M10.5268012,14.6282916 C10.7861671,14.6282916 10.9936599,14.4072737 10.9936599,14.1310588 L10.9936599,6.43769309 C10.9936599,6.16147826 10.7861671,5.94046036 10.5268012,5.94046036 C10.2674352,5.94046036 10.0598991,6.16147826 10.0598991,6.43769309 L10.0598991,14.1310588 C10.0598991,14.4072737 10.2674352,14.6282916 10.5268012,14.6282916 Z" id="Fill-4"></path>
            </g>
        </g>
    </g>
</svg>