<svg width="51" height="51" viewBox="0 0 51 51" fill="none" xmlns="http://www.w3.org/2000/svg">
<path fill-rule="evenodd" clip-rule="evenodd" d="M24.6567 24.5105L0.646196 24.5105L0.646196 25.5105L24.6567 25.5105L24.6567 49.5216L25.6567 49.5216L25.6567 25.5105L49.6673 25.5105L49.6673 24.5105L25.6567 24.5105L25.6567 0.500505L24.6567 0.500505L24.6567 24.5105Z" fill="#1F85C3"/>
</svg>
